/Users/Hazem/Documents/graphhopper/tools/src/main/java/com/graphhopper/ui/DebugDijkstraSimple.java
/Users/Hazem/Documents/graphhopper/tools/src/main/java/com/graphhopper/ui/DebugAStarBi.java
/Users/Hazem/Documents/graphhopper/tools/src/main/java/com/graphhopper/tools/QueryTorture.java
/Users/Hazem/Documents/graphhopper/tools/src/main/java/com/graphhopper/ui/GraphicsWrapper.java
/Users/Hazem/Documents/graphhopper/tools/src/main/java/com/graphhopper/tools/Bzip2.java
/Users/Hazem/Documents/graphhopper/tools/src/main/java/com/graphhopper/ui/LayeredPanel.java
/Users/Hazem/Documents/graphhopper/tools/src/main/java/com/graphhopper/ui/DebugAlgo.java
/Users/Hazem/Documents/graphhopper/tools/src/main/java/com/graphhopper/tools/Import.java
/Users/Hazem/Documents/graphhopper/tools/src/main/java/com/graphhopper/ui/MapLayer.java
/Users/Hazem/Documents/graphhopper/tools/src/main/java/com/graphhopper/ui/DefaultMapLayer.java
/Users/Hazem/Documents/graphhopper/tools/src/main/java/com/graphhopper/ui/DebugDijkstraBidirection.java
/Users/Hazem/Documents/graphhopper/tools/src/main/java/com/graphhopper/ui/MiniGraphUI.java
/Users/Hazem/Documents/graphhopper/tools/src/main/java/com/graphhopper/ui/DebugAStar.java
/Users/Hazem/Documents/graphhopper/tools/src/main/java/com/graphhopper/tools/Measurement.java
