-------------------------------------------------------------------------------
Test set: com.graphhopper.routing.PathBidirRefTest
-------------------------------------------------------------------------------
Tests run: 2, Failures: 0, Errors: 0, Skipped: 0, Time elapsed: 0.012 sec - in com.graphhopper.routing.PathBidirRefTest
