-------------------------------------------------------------------------------
Test set: com.graphhopper.coll.BitSetImplTest
-------------------------------------------------------------------------------
Tests run: 5, Failures: 0, Errors: 0, Skipped: 0, Time elapsed: 0 sec - in com.graphhopper.coll.BitSetImplTest
