-------------------------------------------------------------------------------
Test set: com.graphhopper.routing.util.MountainBikeFlagEncoderTest
-------------------------------------------------------------------------------
Tests run: 16, Failures: 0, Errors: 0, Skipped: 0, Time elapsed: 0.042 sec - in com.graphhopper.routing.util.MountainBikeFlagEncoderTest
