-------------------------------------------------------------------------------
Test set: com.graphhopper.coll.SparseLongLongArrayTest
-------------------------------------------------------------------------------
Tests run: 1, Failures: 0, Errors: 0, Skipped: 0, Time elapsed: 0 sec - in com.graphhopper.coll.SparseLongLongArrayTest
