-------------------------------------------------------------------------------
Test set: com.graphhopper.GraphHopperAPITest
-------------------------------------------------------------------------------
Tests run: 3, Failures: 0, Errors: 0, Skipped: 0, Time elapsed: 0.855 sec - in com.graphhopper.GraphHopperAPITest
