-------------------------------------------------------------------------------
Test set: com.graphhopper.routing.ch.DijkstraBidirectionCHTest
-------------------------------------------------------------------------------
Tests run: 29, Failures: 0, Errors: 0, Skipped: 0, Time elapsed: 0.861 sec - in com.graphhopper.routing.ch.DijkstraBidirectionCHTest
