-------------------------------------------------------------------------------
Test set: com.graphhopper.routing.ch.PrepareContractionHierarchiesTest
-------------------------------------------------------------------------------
Tests run: 15, Failures: 0, Errors: 0, Skipped: 0, Time elapsed: 0.258 sec - in com.graphhopper.routing.ch.PrepareContractionHierarchiesTest
