-------------------------------------------------------------------------------
Test set: com.graphhopper.storage.GraphHopperStorageWithTurnCostsTest
-------------------------------------------------------------------------------
Tests run: 45, Failures: 0, Errors: 0, Skipped: 0, Time elapsed: 1.585 sec - in com.graphhopper.storage.GraphHopperStorageWithTurnCostsTest
