-------------------------------------------------------------------------------
Test set: com.graphhopper.routing.util.BikeFlagEncoderTest
-------------------------------------------------------------------------------
Tests run: 23, Failures: 0, Errors: 0, Skipped: 0, Time elapsed: 0.035 sec - in com.graphhopper.routing.util.BikeFlagEncoderTest
