-------------------------------------------------------------------------------
Test set: com.graphhopper.util.SimpleIntDequeTest
-------------------------------------------------------------------------------
Tests run: 3, Failures: 0, Errors: 0, Skipped: 0, Time elapsed: 0 sec - in com.graphhopper.util.SimpleIntDequeTest
