-------------------------------------------------------------------------------
Test set: com.graphhopper.reader.PrinctonReaderTest
-------------------------------------------------------------------------------
Tests run: 2, Failures: 0, Errors: 0, Skipped: 0, Time elapsed: 0.133 sec - in com.graphhopper.reader.PrinctonReaderTest
