-------------------------------------------------------------------------------
Test set: com.graphhopper.storage.RAMDataAccessTest
-------------------------------------------------------------------------------
Tests run: 14, Failures: 0, Errors: 0, Skipped: 0, Time elapsed: 0.009 sec - in com.graphhopper.storage.RAMDataAccessTest
