<?xml version="1.0" encoding="UTF-8"?>
<testsuite name="com.graphhopper.storage.GraphHopperStorageWithTurnCostsTest" time="1.559" tests="45" errors="0" skipped="0" failures="0">
  <properties>
    <property name="java.runtime.name" value="Java(TM) SE Runtime Environment"/>
    <property name="sun.boot.library.path" value="/Library/Java/JavaVirtualMachines/jdk1.7.0_79.jdk/Contents/Home/jre/lib"/>
    <property name="java.vm.version" value="24.79-b02"/>
    <property name="user.country.format" value="DE"/>
    <property name="gopherProxySet" value="false"/>
    <property name="java.vm.vendor" value="Oracle Corporation"/>
    <property name="java.vendor.url" value="http://java.oracle.com/"/>
    <property name="path.separator" value=":"/>
    <property name="guice.disable.misplaced.annotation.check" value="true"/>
    <property name="java.vm.name" value="Java HotSpot(TM) 64-Bit Server VM"/>
    <property name="file.encoding.pkg" value="sun.io"/>
    <property name="user.country" value="US"/>
    <property name="sun.java.launcher" value="SUN_STANDARD"/>
    <property name="sun.os.patch.level" value="unknown"/>
    <property name="java.vm.specification.name" value="Java Virtual Machine Specification"/>
    <property name="user.dir" value="/Users/Hazem/Documents/graphhopper"/>
    <property name="java.runtime.version" value="1.7.0_79-b15"/>
    <property name="java.awt.graphicsenv" value="sun.awt.CGraphicsEnvironment"/>
    <property name="java.endorsed.dirs" value="/Library/Java/JavaVirtualMachines/jdk1.7.0_79.jdk/Contents/Home/jre/lib/endorsed"/>
    <property name="os.arch" value="x86_64"/>
    <property name="java.io.tmpdir" value="/var/folders/mk/t3t1bpsd0t92btw5qvhsp43h0000gn/T/"/>
    <property name="line.separator" value="&#10;"/>
    <property name="java.vm.specification.vendor" value="Oracle Corporation"/>
    <property name="os.name" value="Mac OS X"/>
    <property name="maven.ext.class.path" value="/Applications/NetBeans/NetBeans 8.0.2.app/Contents/Resources/NetBeans/java/maven-nblib/netbeans-eventspy.jar"/>
    <property name="classworlds.conf" value="/Applications/NetBeans/NetBeans 8.0.2.app/Contents/Resources/NetBeans/java/maven/bin/m2.conf"/>
    <property name="sun.jnu.encoding" value="UTF-8"/>
    <property name="java.library.path" value="/Applications/NetBeans/NetBeans 8.0.2.app/Contents/Resources/NetBeans/webcommon/bin::/Users/Hazem/Library/Java/Extensions:/Library/Java/Extensions:/Network/Library/Java/Extensions:/System/Library/Java/Extensions:/usr/lib/java:."/>
    <property name="java.specification.name" value="Java Platform API Specification"/>
    <property name="java.class.version" value="51.0"/>
    <property name="sun.management.compiler" value="HotSpot 64-Bit Tiered Compilers"/>
    <property name="os.version" value="10.10.4"/>
    <property name="http.nonProxyHosts" value="local|*.local|169.254/16|*.169.254/16"/>
    <property name="user.home" value="/Users/Hazem"/>
    <property name="user.timezone" value="Europe/Berlin"/>
    <property name="java.awt.printerjob" value="sun.lwawt.macosx.CPrinterJob"/>
    <property name="java.specification.version" value="1.7"/>
    <property name="file.encoding" value="UTF-8"/>
    <property name="user.name" value="Hazem"/>
    <property name="java.class.path" value="/Applications/NetBeans/NetBeans 8.0.2.app/Contents/Resources/NetBeans/java/maven/boot/plexus-classworlds-2.4.jar"/>
    <property name="java.vm.specification.version" value="1.7"/>
    <property name="sun.arch.data.model" value="64"/>
    <property name="java.home" value="/Library/Java/JavaVirtualMachines/jdk1.7.0_79.jdk/Contents/Home/jre"/>
    <property name="sun.java.command" value="org.codehaus.plexus.classworlds.launcher.Launcher -Dmaven.ext.class.path=/Applications/NetBeans/NetBeans 8.0.2.app/Contents/Resources/NetBeans/java/maven-nblib/netbeans-eventspy.jar install"/>
    <property name="java.specification.vendor" value="Oracle Corporation"/>
    <property name="user.language" value="en"/>
    <property name="awt.toolkit" value="sun.lwawt.macosx.LWCToolkit"/>
    <property name="java.vm.info" value="mixed mode"/>
    <property name="java.version" value="1.7.0_79"/>
    <property name="java.ext.dirs" value="/Users/Hazem/Library/Java/Extensions:/Library/Java/JavaVirtualMachines/jdk1.7.0_79.jdk/Contents/Home/jre/lib/ext:/Library/Java/Extensions:/Network/Library/Java/Extensions:/System/Library/Java/Extensions:/usr/lib/java"/>
    <property name="sun.boot.class.path" value="/Library/Java/JavaVirtualMachines/jdk1.7.0_79.jdk/Contents/Home/jre/lib/resources.jar:/Library/Java/JavaVirtualMachines/jdk1.7.0_79.jdk/Contents/Home/jre/lib/rt.jar:/Library/Java/JavaVirtualMachines/jdk1.7.0_79.jdk/Contents/Home/jre/lib/sunrsasign.jar:/Library/Java/JavaVirtualMachines/jdk1.7.0_79.jdk/Contents/Home/jre/lib/jsse.jar:/Library/Java/JavaVirtualMachines/jdk1.7.0_79.jdk/Contents/Home/jre/lib/jce.jar:/Library/Java/JavaVirtualMachines/jdk1.7.0_79.jdk/Contents/Home/jre/lib/charsets.jar:/Library/Java/JavaVirtualMachines/jdk1.7.0_79.jdk/Contents/Home/jre/lib/jfr.jar:/Library/Java/JavaVirtualMachines/jdk1.7.0_79.jdk/Contents/Home/jre/classes"/>
    <property name="java.vendor" value="Oracle Corporation"/>
    <property name="maven.home" value="/Applications/NetBeans/NetBeans 8.0.2.app/Contents/Resources/NetBeans/java/maven"/>
    <property name="file.separator" value="/"/>
    <property name="java.vendor.url.bug" value="http://bugreport.sun.com/bugreport/"/>
    <property name="sun.cpu.endian" value="little"/>
    <property name="sun.io.unicode.encoding" value="UnicodeBig"/>
    <property name="socksNonProxyHosts" value="local|*.local|169.254/16|*.169.254/16"/>
    <property name="ftp.nonProxyHosts" value="local|*.local|169.254/16|*.169.254/16"/>
    <property name="sun.cpu.isalist" value=""/>
  </properties>
  <testcase name="testSave_and_fileFormat" classname="com.graphhopper.storage.GraphHopperStorageWithTurnCostsTest" time="0.427"/>
  <testcase name="testEnsureCapacity" classname="com.graphhopper.storage.GraphHopperStorageWithTurnCostsTest" time="0.492"/>
  <testcase name="testEnsureSize" classname="com.graphhopper.storage.GraphHopperStorageWithTurnCostsTest" time="0.442"/>
  <testcase name="testDoThrowExceptionIfDimDoesNotMatch" classname="com.graphhopper.storage.GraphHopperStorageWithTurnCostsTest" time="0.08"/>
  <testcase name="testBigDataEdge" classname="com.graphhopper.storage.GraphHopperStorageWithTurnCostsTest" time="0.003"/>
  <testcase name="internalDisconnect" classname="com.graphhopper.storage.GraphHopperStorageWithTurnCostsTest" time="0"/>
  <testcase name="testNoCreateCalled" classname="com.graphhopper.storage.GraphHopperStorageWithTurnCostsTest" time="0"/>
  <testcase name="testDetachEdge" classname="com.graphhopper.storage.GraphHopperStorageWithTurnCostsTest" time="0.001"/>
  <testcase name="testUnidirectionalEdgeFilter" classname="com.graphhopper.storage.GraphHopperStorageWithTurnCostsTest" time="0"/>
  <testcase name="testDeleteNodeForUnidir" classname="com.graphhopper.storage.GraphHopperStorageWithTurnCostsTest" time="0"/>
  <testcase name="testIdenticalNodes2" classname="com.graphhopper.storage.GraphHopperStorageWithTurnCostsTest" time="0"/>
  <testcase name="testClone" classname="com.graphhopper.storage.GraphHopperStorageWithTurnCostsTest" time="0.001"/>
  <testcase name="testEdges" classname="com.graphhopper.storage.GraphHopperStorageWithTurnCostsTest" time="0"/>
  <testcase name="testFlags" classname="com.graphhopper.storage.GraphHopperStorageWithTurnCostsTest" time="0"/>
  <testcase name="testGetAllEdges" classname="com.graphhopper.storage.GraphHopperStorageWithTurnCostsTest" time="0.001"/>
  <testcase name="testFootMix" classname="com.graphhopper.storage.GraphHopperStorageWithTurnCostsTest" time="0"/>
  <testcase name="testUpdateUnidirectional" classname="com.graphhopper.storage.GraphHopperStorageWithTurnCostsTest" time="0.001"/>
  <testcase name="testDeleteAndOptimize" classname="com.graphhopper.storage.GraphHopperStorageWithTurnCostsTest" time="0"/>
  <testcase name="test8BytesFlags" classname="com.graphhopper.storage.GraphHopperStorageWithTurnCostsTest" time="0.074"/>
  <testcase name="testSimpleDelete" classname="com.graphhopper.storage.GraphHopperStorageWithTurnCostsTest" time="0.001"/>
  <testcase name="testComplexDeleteNode" classname="com.graphhopper.storage.GraphHopperStorageWithTurnCostsTest" time="0.003"/>
  <testcase name="testGetLocations" classname="com.graphhopper.storage.GraphHopperStorageWithTurnCostsTest" time="0.001"/>
  <testcase name="testGetAllEdgesWithDelete" classname="com.graphhopper.storage.GraphHopperStorageWithTurnCostsTest" time="0.002"/>
  <testcase name="testDozendEdges" classname="com.graphhopper.storage.GraphHopperStorageWithTurnCostsTest" time="0.001"/>
  <testcase name="testIdenticalNodes" classname="com.graphhopper.storage.GraphHopperStorageWithTurnCostsTest" time="0.002"/>
  <testcase name="testAddLocation" classname="com.graphhopper.storage.GraphHopperStorageWithTurnCostsTest" time="0.001"/>
  <testcase name="testComplexDeleteNode2" classname="com.graphhopper.storage.GraphHopperStorageWithTurnCostsTest" time="0.002"/>
  <testcase name="testEdgeProperties" classname="com.graphhopper.storage.GraphHopperStorageWithTurnCostsTest" time="0.002"/>
  <testcase name="testEnabledElevation" classname="com.graphhopper.storage.GraphHopperStorageWithTurnCostsTest" time="0.002"/>
  <testcase name="testPropertiesWithNoInit" classname="com.graphhopper.storage.GraphHopperStorageWithTurnCostsTest" time="0.001"/>
  <testcase name="testCheckFirstNode" classname="com.graphhopper.storage.GraphHopperStorageWithTurnCostsTest" time="0.001"/>
  <testcase name="testUnidirectional" classname="com.graphhopper.storage.GraphHopperStorageWithTurnCostsTest" time="0.001"/>
  <testcase name="testBounds" classname="com.graphhopper.storage.GraphHopperStorageWithTurnCostsTest" time="0.001"/>
  <testcase name="testCopyTo" classname="com.graphhopper.storage.GraphHopperStorageWithTurnCostsTest" time="0.004"/>
  <testcase name="testSimpleDelete2" classname="com.graphhopper.storage.GraphHopperStorageWithTurnCostsTest" time="0.002"/>
  <testcase name="testSimpleDelete3" classname="com.graphhopper.storage.GraphHopperStorageWithTurnCostsTest" time="0.001"/>
  <testcase name="testCreateDuplicateEdges" classname="com.graphhopper.storage.GraphHopperStorageWithTurnCostsTest" time="0.002"/>
  <testcase name="testEdgeReturn" classname="com.graphhopper.storage.GraphHopperStorageWithTurnCostsTest" time="0.001"/>
  <testcase name="testCreateLocation" classname="com.graphhopper.storage.GraphHopperStorageWithTurnCostsTest" time="0.001"/>
  <testcase name="testPillarNodes" classname="com.graphhopper.storage.GraphHopperStorageWithTurnCostsTest" time="0.002"/>
  <testcase name="testInfinityWeight" classname="com.graphhopper.storage.GraphHopperStorageWithTurnCostsTest" time="0.002"/>
  <testcase name="testNameIndex" classname="com.graphhopper.storage.GraphHopperStorageWithTurnCostsTest" time="0"/>
  <testcase name="testCopyProperties" classname="com.graphhopper.storage.GraphHopperStorageWithTurnCostsTest" time="0"/>
  <testcase name="testDirectional" classname="com.graphhopper.storage.GraphHopperStorageWithTurnCostsTest" time="0.001"/>
  <testcase name="testSetNodes" classname="com.graphhopper.storage.GraphHopperStorageWithTurnCostsTest" time="0"/>
</testsuite>