/Users/Hazem/Documents/graphhopper/core/src/test/java/com/graphhopper/coll/AbstractBinHeapTest.java
/Users/Hazem/Documents/graphhopper/core/src/test/java/com/graphhopper/routing/util/RacingBikeFlagEncoderTest.java
/Users/Hazem/Documents/graphhopper/core/src/test/java/com/graphhopper/util/shapes/CoordTrigTest.java
/Users/Hazem/Documents/graphhopper/core/src/test/java/com/graphhopper/reader/PrinctonReaderTest.java
/Users/Hazem/Documents/graphhopper/core/src/test/java/com/graphhopper/geohash/LinearKeyAlgoTest.java
/Users/Hazem/Documents/graphhopper/core/src/test/java/com/graphhopper/util/AngleCalcTest.java
/Users/Hazem/Documents/graphhopper/core/src/test/java/com/graphhopper/coll/GHLongIntBTreeTest.java
/Users/Hazem/Documents/graphhopper/core/src/test/java/com/graphhopper/routing/ch/DijkstraBidirectionCHTest.java
/Users/Hazem/Documents/graphhopper/core/src/test/java/com/graphhopper/storage/RAMDataAccessTest.java
/Users/Hazem/Documents/graphhopper/core/src/test/java/com/graphhopper/routing/util/MotorcycleFlagEncoderTest.java
/Users/Hazem/Documents/graphhopper/core/src/test/java/com/graphhopper/coll/IntDoubleBinHeapTest.java
/Users/Hazem/Documents/graphhopper/core/src/test/java/com/graphhopper/routing/util/FastestWeightingTest.java
/Users/Hazem/Documents/graphhopper/core/src/test/java/com/graphhopper/util/AbstractBitUtilTester.java
/Users/Hazem/Documents/graphhopper/core/src/test/java/com/graphhopper/util/PMapTest.java
/Users/Hazem/Documents/graphhopper/core/src/test/java/com/graphhopper/coll/GHTBitSetTest.java
/Users/Hazem/Documents/graphhopper/core/src/test/java/com/graphhopper/util/BitUtilLittleTest.java
/Users/Hazem/Documents/graphhopper/core/src/test/java/com/graphhopper/util/DouglasPeuckerTest.java
/Users/Hazem/Documents/graphhopper/core/src/test/java/com/graphhopper/GraphHopperTest.java
/Users/Hazem/Documents/graphhopper/core/src/test/java/com/graphhopper/routing/DijkstraTest.java
/Users/Hazem/Documents/graphhopper/core/src/test/java/com/graphhopper/util/DistanceCalcEarthTest.java
/Users/Hazem/Documents/graphhopper/core/src/test/java/com/graphhopper/util/GHUtilityTest.java
/Users/Hazem/Documents/graphhopper/core/src/test/java/com/graphhopper/storage/StorablePropertiesTest.java
/Users/Hazem/Documents/graphhopper/core/src/test/java/com/graphhopper/coll/GHTreeMapComposedTest.java
/Users/Hazem/Documents/graphhopper/core/src/test/java/com/graphhopper/routing/util/AbstractFlagEncoderTest.java
/Users/Hazem/Documents/graphhopper/core/src/test/java/com/graphhopper/storage/index/AbstractLocationIndexTester.java
/Users/Hazem/Documents/graphhopper/core/src/test/java/com/graphhopper/routing/QueryGraphTest.java
/Users/Hazem/Documents/graphhopper/core/src/test/java/com/graphhopper/routing/util/BikeFlagEncoderTest.java
/Users/Hazem/Documents/graphhopper/core/src/test/java/com/graphhopper/routing/DijkstraOneToManyTest.java
/Users/Hazem/Documents/graphhopper/core/src/test/java/com/graphhopper/storage/index/LocationIndexTreeTest.java
/Users/Hazem/Documents/graphhopper/core/src/test/java/com/graphhopper/util/shapes/GHPoint3DTest.java
/Users/Hazem/Documents/graphhopper/core/src/test/java/com/graphhopper/routing/util/MountainBikeFlagEncoderTest.java
/Users/Hazem/Documents/graphhopper/core/src/test/java/com/graphhopper/util/BitUtilBigTest.java
/Users/Hazem/Documents/graphhopper/core/src/test/java/com/graphhopper/storage/MMapDataAccessTest.java
/Users/Hazem/Documents/graphhopper/core/src/test/java/com/graphhopper/util/InstructionTest.java
/Users/Hazem/Documents/graphhopper/core/src/test/java/com/graphhopper/coll/AbstractMyBitSetTest.java
/Users/Hazem/Documents/graphhopper/core/src/test/java/com/graphhopper/GraphHopperAPITest.java
/Users/Hazem/Documents/graphhopper/core/src/test/java/com/graphhopper/coll/CompressedArrayTest.java
/Users/Hazem/Documents/graphhopper/core/src/test/java/com/graphhopper/routing/PathTest.java
/Users/Hazem/Documents/graphhopper/core/src/test/java/com/graphhopper/routing/util/PrepareRoutingSubnetworksTest.java
/Users/Hazem/Documents/graphhopper/core/src/test/java/com/graphhopper/reader/OSMNodeTest.java
/Users/Hazem/Documents/graphhopper/core/src/test/java/com/graphhopper/storage/index/LocationIndexTreeForLevelGraphTest.java
/Users/Hazem/Documents/graphhopper/core/src/test/java/com/graphhopper/routing/util/EncodingManagerTest.java
/Users/Hazem/Documents/graphhopper/core/src/test/java/com/graphhopper/storage/AbstractDirectoryTester.java
/Users/Hazem/Documents/graphhopper/core/src/test/java/com/graphhopper/storage/MMapDirectoryTest.java
/Users/Hazem/Documents/graphhopper/core/src/test/java/com/graphhopper/routing/DijkstraBidirectionRefTest.java
/Users/Hazem/Documents/graphhopper/core/src/test/java/com/graphhopper/util/shapes/GHPointTest.java
/Users/Hazem/Documents/graphhopper/core/src/test/java/com/graphhopper/coll/BitSetImplTest.java
/Users/Hazem/Documents/graphhopper/core/src/test/java/com/graphhopper/reader/dem/SRTMProviderTest.java
/Users/Hazem/Documents/graphhopper/core/src/test/java/com/graphhopper/storage/AbstractGraphStorageTester.java
/Users/Hazem/Documents/graphhopper/core/src/test/java/com/graphhopper/routing/EdgeBasedRoutingAlgorithmTest.java
/Users/Hazem/Documents/graphhopper/core/src/test/java/com/graphhopper/GraphHopperIT.java
/Users/Hazem/Documents/graphhopper/core/src/test/java/com/graphhopper/routing/util/CarFlagEncoderTest.java
/Users/Hazem/Documents/graphhopper/core/src/test/java/com/graphhopper/util/SimpleIntDequeTest.java
/Users/Hazem/Documents/graphhopper/core/src/test/java/com/graphhopper/search/NameIndexTest.java
/Users/Hazem/Documents/graphhopper/core/src/test/java/com/graphhopper/reader/OSMReaderTest.java
/Users/Hazem/Documents/graphhopper/core/src/test/java/com/graphhopper/util/BreadthFirstSearchTest.java
/Users/Hazem/Documents/graphhopper/core/src/test/java/com/graphhopper/routing/ch/PrepareContractionHierarchiesTest.java
/Users/Hazem/Documents/graphhopper/core/src/test/java/com/graphhopper/routing/util/FootFlagEncoderTest.java
/Users/Hazem/Documents/graphhopper/core/src/test/java/com/graphhopper/util/DepthFirstSearchTest.java
/Users/Hazem/Documents/graphhopper/core/src/test/java/com/graphhopper/coll/OSMIDMapTest.java
/Users/Hazem/Documents/graphhopper/core/src/test/java/com/graphhopper/coll/SparseLongLongArrayTest.java
/Users/Hazem/Documents/graphhopper/core/src/test/java/com/graphhopper/geohash/SpatialKeyAlgoTest.java
/Users/Hazem/Documents/graphhopper/core/src/test/java/com/graphhopper/routing/util/EncodedValueTest.java
/Users/Hazem/Documents/graphhopper/core/src/test/java/com/graphhopper/routing/PathBidirRefTest.java
/Users/Hazem/Documents/graphhopper/core/src/test/java/com/graphhopper/storage/NativeFSLockFactoryTest.java
/Users/Hazem/Documents/graphhopper/core/src/test/java/com/graphhopper/storage/index/Location2IDQuadtreeTest.java
/Users/Hazem/Documents/graphhopper/core/src/test/java/com/graphhopper/storage/LevelGraphStorageTest.java
/Users/Hazem/Documents/graphhopper/core/src/test/java/com/graphhopper/routing/util/AbstractBikeFlagEncoderTester.java
/Users/Hazem/Documents/graphhopper/core/src/test/java/com/graphhopper/storage/DataAccessTest.java
/Users/Hazem/Documents/graphhopper/core/src/test/java/com/graphhopper/util/HelperTest.java
/Users/Hazem/Documents/graphhopper/core/src/test/java/com/graphhopper/routing/ch/PrepareEncoderTest.java
/Users/Hazem/Documents/graphhopper/core/src/test/java/com/graphhopper/routing/util/EncodedDoubleValueTest.java
/Users/Hazem/Documents/graphhopper/core/src/test/java/com/graphhopper/coll/BigLongIntMapTest.java
/Users/Hazem/Documents/graphhopper/core/src/test/java/com/graphhopper/storage/GraphHopperStorageWithTurnCostsTest.java
/Users/Hazem/Documents/graphhopper/core/src/test/java/com/graphhopper/util/PointListTest.java
/Users/Hazem/Documents/graphhopper/core/src/test/java/com/graphhopper/storage/EdgeTest.java
/Users/Hazem/Documents/graphhopper/core/src/test/java/com/graphhopper/storage/RAMDirectoryTest.java
/Users/Hazem/Documents/graphhopper/core/src/test/java/com/graphhopper/GHRequestTest.java
/Users/Hazem/Documents/graphhopper/core/src/test/java/com/graphhopper/util/shapes/CircleTest.java
/Users/Hazem/Documents/graphhopper/core/src/test/java/com/graphhopper/routing/util/Bike2WeightFlagEncoderTest.java
/Users/Hazem/Documents/graphhopper/core/src/test/java/com/graphhopper/coll/IntIntBinHeapTest.java
/Users/Hazem/Documents/graphhopper/core/src/test/java/com/graphhopper/GHResponseTest.java
/Users/Hazem/Documents/graphhopper/core/src/test/java/com/graphhopper/storage/GraphHopperStorageTest.java
/Users/Hazem/Documents/graphhopper/core/src/test/java/com/graphhopper/routing/AbstractRoutingAlgorithmTester.java
/Users/Hazem/Documents/graphhopper/core/src/test/java/com/graphhopper/storage/VLongStorageTest.java
/Users/Hazem/Documents/graphhopper/core/src/test/java/com/graphhopper/storage/UnsafeDataAccessTest.java
/Users/Hazem/Documents/graphhopper/core/src/test/java/com/graphhopper/util/EdgeWrapperTest.java
/Users/Hazem/Documents/graphhopper/core/src/test/java/com/graphhopper/util/InstructionListTest.java
/Users/Hazem/Documents/graphhopper/core/src/test/java/com/graphhopper/reader/dem/CGIARProviderTest.java
/Users/Hazem/Documents/graphhopper/core/src/test/java/com/graphhopper/storage/RAMIntDataAccessTest.java
/Users/Hazem/Documents/graphhopper/core/src/test/java/com/graphhopper/storage/index/BresenhamLineTest.java
/Users/Hazem/Documents/graphhopper/core/src/test/java/com/graphhopper/storage/GraphStorageViaMMapTest.java
/Users/Hazem/Documents/graphhopper/core/src/test/java/com/graphhopper/reader/dem/HeightTileTest.java
/Users/Hazem/Documents/graphhopper/core/src/test/java/com/graphhopper/reader/OSMElementTest.java
/Users/Hazem/Documents/graphhopper/core/src/test/java/com/graphhopper/routing/AStarBidirectionTest.java
/Users/Hazem/Documents/graphhopper/core/src/test/java/com/graphhopper/util/shapes/BBoxTest.java
/Users/Hazem/Documents/graphhopper/core/src/test/java/com/graphhopper/util/TranslationMapTest.java
/Users/Hazem/Documents/graphhopper/core/src/test/java/com/graphhopper/routing/RoutingAlgorithmIT.java
/Users/Hazem/Documents/graphhopper/core/src/test/java/com/graphhopper/storage/SynchedDAWrapperTest.java
/Users/Hazem/Documents/graphhopper/core/src/test/java/com/graphhopper/storage/SimpleFSLockFactoryTest.java
/Users/Hazem/Documents/graphhopper/core/src/test/java/com/graphhopper/coll/OSMIDSegmentedMapTest.java
/Users/Hazem/Documents/graphhopper/core/src/test/java/com/graphhopper/util/EdgeSkipIteratorTest.java
/Users/Hazem/Documents/graphhopper/core/src/test/java/com/graphhopper/routing/AStarTest.java
/Users/Hazem/Documents/graphhopper/core/src/test/java/com/graphhopper/storage/AbstractLockFactoryTester.java
/Users/Hazem/Documents/graphhopper/core/src/test/java/com/graphhopper/reader/OSMTurnRelationTest.java
/Users/Hazem/Documents/graphhopper/core/src/test/java/com/graphhopper/coll/GHSortedCollectionTest.java
/Users/Hazem/Documents/graphhopper/core/src/test/java/com/graphhopper/storage/index/Location2IDFullWithEdgesIndexTest.java
/Users/Hazem/Documents/graphhopper/core/src/test/java/com/graphhopper/storage/index/Location2IDFullIndexTest.java
